{
  "Leitung Technisches Hilfswerk": "TLTG",
  "Regionalstelle Aachen": "GAAC",
  "Ortsverband Aachen": "OAAC",
  "Ortsverband Aalen": "OAAL",
  "Ortsverband Achern": "OACH",
  "Ortsverband Achim": "OAHI",
  "Ortsverband Adelsheim": "OADE",
  "Ortsverband Ahaus": "OAHA",
  "Ortsverband Ahrensburg": "OAHB",
  "Ortsverband Berchtesgadener Land": "OBGL",
  "Ortsverband Albstadt": "OALB",
  "Ortsverband Alsdorf": "OALS",
  "Ortsverband Alsfeld": "OALD",
  "Ortsverband Altena": "OALN",
  "Ortsverband Altenburg": "OALT",
  "Landesverband Sachsen, Thüringen": "LVTH",
  "Ortsverband Traunreut": "OTRA",
  "Ortsverband Alzenau": "OALZ",
  "Ortsverband Alzey": "OALY",
  "Ortsverband Amberg": "OAMB",
  "Ortsverband Andernach": "OAND",
  "Ortsverband Ansbach": "OANS",
  "Ortsverband Arnsberg": "OARN",
  "Regionalstelle Arnsberg": "GARN",
  "Ortsverband Aschaffenburg": "OABG",
  "Ortsverband Attendorn": "OATT",
  "Ortsverband Aue-Schwarzenberg": "OAUE",
  "Ortsverband Augsburg": "OAUG",
  "Ortsverband Aurich": "OAUR",
  "Ortsverband Backnang": "OBAC",
  "Ortsverband Bad Belzig": "OBLG",
  "Ortsverband Bad Bergzabern": "OZAB",
  "Ortsverband Bad Berleburg": "OBBB",
  "Ortsverband Bad Essen": "OWLG",
  "Ortsverband Bad Hersfeld": "OBFD",
  "Ortsverband Bad Homburg": "OHMB",
  "Ortsverband Bad Honnef": "OBHF",
  "Ortsverband Bad Kreuznach": "OBKN",
  "Regionalstelle Bad Kreuznach": "GBKN",
  "Ortsverband Bad Lauterberg": "OBLB",
  "Ortsverband Ahrweiler": "OAHR",
  "Ortsverband Vlotho": "OVLO",
  "Ortsverband Bad Oldesloe": "OBOL",
  "Ortsverband Bad Orb": "OORB",
  "Ortsverband Fürstenwalde/Spree": "OFWD",
  "Ortsverband Bad Säckingen": "OBSA",
  "Ortsverband Bad Segeberg": "OBSG",
  "Ortsverband Bad Staffelstein": "OSTA",
  "Ortsverband Calw": "OCAL",
  "Regionalstelle Bad Tölz": "GTOE",
  "Ortsverband Bad Wildungen": "OBWG",
  "Ortsverband Baden-Baden": "OBBA",
  "Ortsverband Baiersdorf": "OBAI",
  "Ortsverband Balingen": "OBAL",
  "Ortsverband Balve": "OBAV",
  "Ortsverband Bamberg": "OBAM",
  "Ortsverband Barmstedt": "OBAR",
  "Ortsverband Barth": "OBTH",
  "Ortsverband Bassum": "OBAS",
  "Ortsverband Bautzen": "OBAU",
  "Ortsverband Bayreuth": "OBAY",
  "Ortsverband Beckingen": "OBEK",
  "Ortsverband Beckum": "OBKM",
  "Ortsverband Bendorf": "OBEN",
  "Ortsverband Bensheim": "OBES",
  "Ortsverband Bergen auf Rügen": "OBGN",
  "Ortsverband Bergheim": "OBGH",
  "Ortsverband Bergisch Gladbach": "OBGG",
  "Ortsverband Kamen-Bergkamen": "OBKA",
  "Ortsverband Dachau": "ODAH",
  "Ortsverband Bergneustadt": "OBNS",
  "Ortsverband Berlin Tempelhof-Schöneberg": "OTES",
  "Regionalstelle Berlin": "GBER",
  "Ortsverband Berlin Marzahn-Hellersdorf": "OMZH",
  "Ortsverband Berlin Charlottenburg-Wilmersdorf": "OCHA",
  "Ortsverband Berlin Lichtenberg": "OLIC",
  "Ortsverband Berlin Neukölln": "ONKO",
  "Ortsverband Berlin Pankow": "OPKW",
  "Ortsverband Berlin Friedrichshain-Kreuzberg": "OFRK",
  "Ortsverband Berlin Reinickendorf": "OREI",
  "Ortsverband Berlin Spandau": "OSPA",
  "Ortsverband Berlin-Mitte": "OBEM",
  "Ortsverband Berlin Treptow-Köpenick": "OTRE",
  "Ortsverband Berlin Steglitz-Zehlendorf": "OSTZ",
  "Landesverband Berlin, Brandenburg, Sachsen-Anhalt": "LVBE",
  "Ortsverband Bernburg": "OBBG",
  "Ortsverband Biberach/BD.": "OBID",
  "Regionalstelle Biberach": "GBIB",
  "Ortsverband Biberach/Riß": "OBIB",
  "Ortsverband Biedenkopf": "OBIE",
  "Regionalstelle Bielefeld": "GBIE",
  "Ortsverband Bielefeld": "OBLE",
  "Ortsverband Bietigheim-Bissingen": "OBBI",
  "Ortsverband Bingen": "OBIN",
  "Ortsverband Bitburg": "OBIT",
  "Ortsverband Wolfen-Bitterfeld": "OWBD",
  "Ortsverband Blaubeuren": "OBLA",
  "Ortsverband Blieskastel-Aßweiler": "OBLI",
  "Ortsverband Böblingen": "OBOE",
  "Ortsverband Bocholt/Borken": "OBOB",
  "Ortsverband Bochum": "OBOM",
  "Regionalstelle Bochum": "GBOC",
  "Ortsverband Bogen": "OBOG",
  "Ortsverband Beuel": "OBEU",
  "Ortsverband Bonn": "OBNG",
  "Ortsverband Borna": "OBNA",
  "Ortsverband Bornheim": "OBOR",
  "Ortsverband Bottrop": "OBTP",
  "Ortsverband Brandenburg an der Havel": "OBDT",
  "Regionalstelle Braunschweig": "GBRA",
  "Ortsverband Braunschweig": "OBRA",
  "Ortsverband Breisach": "OBRE",
  "Regionalstelle Bamberg": "GBAM",
  "Ortsverband Bremen Nord": "OHBN",
  "Ortsverband Bremen Süd": "OHBS",
  "Regionalstelle Bremen": "GHBN",
  "Ortsverband Bremen Mitte": "OHBM",
  "Ortsverband Bremen Ost": "OHBO",
  "Ortsverband Bremerhaven": "OHBV",
  "Ortsverband Brilon": "OBRI",
  "Ortsverband Bad Aibling": "OAIB",
  "Ortsverband Brühl": "OBRL",
  "Ortsverband Bückeburg": "OBKB",
  "Ortsverband Bühl": "OBUE",
  "Ortsverband Bünde": "OBUD",
  "Ortsverband Büren": "OBNU",
  "Ortsverband Burg-Hochdonn": "OBHN",
  "Ortsverband Burg": "OBUG",
  "Ortsverband Burgdorf": "OBUR",
  "Ortsverband Buxtehude": "OBUX",
  "Regionalstelle Buxtehude": "GBUX",
  "Ortsverband Calbe": "OCAB",
  "Ortsverband Castrop-Rauxel": "OCRX",
  "Ortsverband Celle": "OCEL",
  "Ortsverband Cham": "OCAM",
  "Regionalstelle Chemnitz": "GCHE",
  "Ortsverband Chemnitz": "OCHE",
  "Ortsverband Clausthal-Zellerfeld": "OCLZ",
  "Ortsverband Cloppenburg": "OCLO",
  "Ortsverband Cochem": "OCOC",
  "Ortsverband Coesfeld": "OCOE",
  "Ortsverband Cottbus": "OCOT",
  "Ortsverband Crailsheim": "OCRA",
  "Ortsverband Wittenberge": "OWTT",
  "Ortsverband Cuxhaven": "OCUX",
  "Ortsverband Darmstadt": "ODAR",
  "Regionalstelle Darmstadt": "GDAR",
  "Ortsverband Datteln": "ODAT",
  "Ortsverband Daun-Vulkaneifel": "ODOC",
  "Ortsverband Deggendorf": "ODEG",
  "Ortsverband Delmenhorst": "ODEL",
  "Ortsverband Demmin": "ODEM",
  "Ortsverband Dessau": "ODES",
  "Ortsverband Detmold": "ODED",
  "Ortsverband Dillenburg": "ODBG",
  "Ortsverband Dillingen": "ODIL",
  "Ortsverband Dillingen (Saar)": "ODLG",
  "Ortsverband Dinkelsbühl": "ODIN",
  "Ortsverband Dippoldiswalde": "ODIP",
  "Ortsverband Döbeln": "ODOE",
  "Ortsverband Donaueschingen": "ODON",
  "Ortsverband Donauwörth": "ODAU",
  "Ortsverband Coburg": "OCOB",
  "Ortsverband Dortmund": "ODOR",
  "Regionalstelle Dortmund": "GDOR",
  "Regionalstelle Dresden": "GDRE",
  "Ortsverband Dresden": "ODRE",
  "Ortsverband Dinslaken": "ODLK",
  "Ortsverband Duisburg": "ODUI",
  "Ortsverband Dülmen": "ODLM",
  "Ortsverband Düren": "ODNR",
  "Ortsverband Düsseldorf": "ODUE",
  "Ortsverband Eberbach": "OEBE",
  "Ortsverband Eberswalde": "OEBW",
  "Ortsverband Eckernförde": "OECK",
  "Ortsverband Eggenfelden": "OEGG",
  "Ortsverband Ehingen": "OEHI",
  "Ortsverband Annaberg": "OANA",
  "Ortsverband Eichstätt": "OEIC",
  "Ortsverband Eilenburg": "OEIL",
  "Ortsverband Einbeck": "OEIN",
  "Ortsverband Eisenach": "OEIS",
  "Ortsverband Ellwangen": "OELL",
  "Ortsverband Elmshorn": "OELM",
  "Ortsverband Elze": "OELZ",
  "Ortsverband Emden": "OEMD",
  "Ortsverband Emmerich": "OEMH",
  "Ortsverband Erfurt": "OERF",
  "Regionalstelle Erfurt": "GERF",
  "Ortsverband Ergolding": "OERG",
  "Ortsverband Erkelenz": "OEKZ",
  "Ortsverband Erlangen": "OERL",
  "Ortsverband Erlensee": "OESE",
  "Ortsverband Eschwege": "OESC",
  "Ortsverband Eschweiler": "OESW",
  "Ortsverband Essen": "OESS",
  "Ortsverband Euskirchen": "OEUK",
  "Ortsverband Eutin": "OEUT",
  "Ortsverband Feuchtwangen": "OFEU",
  "Ortsverband Flensburg": "OFLE",
  "Ortsverband Forchheim": "OFOR",
  "Ortsverband Forst (Lausitz)": "OFOT",
  "Ortsverband Frankenberg": "OFKB",
  "Ortsverband Frankenthal": "OFRA",
  "Regionalstelle Frankfurt (Oder)": "GFOD",
  "Ortsverband Frankfurt (Oder)": "OFDR",
  "Regionalstelle Frankfurt am Main": "GFRA",
  "Ortsverband Frankfurt": "OFFT",
  "Ortsverband Freiberg": "OFBG",
  "Ortsverband Freiburg": "OFRE",
  "Regionalstelle Freiburg": "GFRE",
  "Ortsverband Freisen": "OFEI",
  "Ortsverband Freising": "OFSI",
  "Ortsverband Freudenstadt": "OFDS",
  "Ortsverband Friedberg": "OFRI",
  "Ortsverband Friedberg/Hessen": "OFDB",
  "Ortsverband Friedrichsthal": "OFTH",
  "Ortsverband Fritzlar": "OFTZ",
  "Ortsverband Fulda": "OFUL",
  "Ortsverband Fürstenfeldbruck": "OFFB",
  "Ortsverband Fürth": "OFUE",
  "Ortsverband Füssen": "OFSS",
  "Ortsverband Gadebusch": "OGAD",
  "Ortsverband Hude-Bookholzberg": "OHUD",
  "Ortsverband Garmisch-Partenkirchen": "OGPA",
  "Ortsverband Geisenheim": "OLOR",
  "Ortsverband Geislingen": "OGEI",
  "Ortsverband Geldern": "OGLD",
  "Ortsverband Gelnhausen": "OGHN",
  "Regionalstelle Gelnhausen": "GGEL",
  "Regionalstelle Gelsenkirchen": "GGKN",
  "Ortsverband Gelsenkirchen": "OGLK",
  "Ortsverband Gera": "ORBG",
  "Ortsverband Geretsried": "OGER",
  "Ortsverband Germersheim": "OGHE",
  "Ortsverband Gerolzhofen": "OGZF",
  "Ortsverband Gieboldehausen": "OGIE",
  "Regionalstelle Gießen": "GGIE",
  "Ortsverband Gießen": "OGIS",
  "Ortsverband Gifhorn": "OGIF",
  "Ortsverband Gladbeck/Dorsten": "OGDO",
  "Regionalstelle Göppingen": "GGOE",
  "Ortsverband Göppingen": "OGOE",
  "Ortsverband Görlitz": "OGOZ",
  "Ortsverband Goslar": "OGOS",
  "Ortsverband Gotha": "OGTH",
  "Ortsverband Göttingen": "OGOT",
  "Regionalstelle Göttingen": "GGOT",
  "Ortsverband Greifswald": "OGRE",
  "Ortsverband Greven": "OGVN",
  "Ortsverband Grevenbroich": "OGVB",
  "Ortsverband Grimma": "OGRM",
  "Ortsverband Gronau": "OGRN",
  "Ortsverband Groß-Gerau": "OGGE",
  "Ortsverband Groß-Umstadt": "OGUT",
  "Ortsverband Großalmerode": "OGRO",
  "Ortsverband Gruibingen": "OGRU",
  "Ortsverband Grünberg": "OGBG",
  "Ortsverband Louisenlund": "OLOU",
  "Ortsverband Gummersbach": "OGMB",
  "Ortsverband Gunzenhausen": "OGUN",
  "Ortsverband Güstrow": "OGUS",
  "Ortsverband Gütersloh": "OGLH",
  "Ortsverband Haan": "OHAA",
  "Ortsverband München-Land": "OMUL",
  "Ortsverband Marktheidenfeld": "OMHD",
  "Ortsverband Hagen": "OHAG",
  "Ortsverband Halberstadt": "OHAT",
  "Ortsverband Haldensleben": "OHLD",
  "Ortsverband Halle": "OHAE",
  "Regionalstelle Halle": "GHAL",
  "Ortsverband Halle (Saale)": "OHSK",
  "Ortsverband Hallenberg-Hesborn": "OHAH",
  "Ortsverband Haltern am See": "OHLT",
  "Ortsverband Halver": "OHAV",
  "Ortsverband Hamburg-Harburg": "OHHH",
  "Ortsverband Hamburg-Wandsbek": "OHHW",
  "Ortsverband Hamburg-Eimsbüttel": "OHHE",
  "Ortsverband Hamburg-Altona": "OHHA",
  "Ortsverband Hamburg Nord": "OHHN",
  "Ortsverband Hamburg Mitte": "OHHM",
  "Regionalstelle Hamburg": "GHHB",
  "Ortsverband Hameln": "OHAL",
  "Ortsverband Hamm": "OHAM",
  "Ortsverband Hann. Münden": "OHMD",
  "Regionalstelle Hannover": "GHAN",
  "Ortsverband Hannover/Langenhagen": "OHAN",
  "Landesverband Bremen, Niedersachsen": "LVNI",
  "Ortsverband Haßfurt": "OHFT",
  "Ortsverband Haßmersheim": "OHAS",
  "Ortsverband Hattingen": "OHAI",
  "Ortsverband Hauenstein": "OHEN",
  "Ortsverband Havixbeck": "OHVX",
  "Ortsverband Hechingen": "OHEC",
  "Ortsverband Heide": "OHED",
  "Ortsverband Heidelberg": "OHBG",
  "Ortsverband Heidenheim": "OHEI",
  "Ortsverband Heidenrod": "OHRD",
  "Ortsverband Heiligenstadt": "OHST",
  "Regionalstelle Heilbronn": "GHBR",
  "Ortsverband Heilbronn": "OHBR",
  "Referat Logistik Heiligenhaus": "TLTG",
  "Landesverband Nordrhein-Westfalen": "LVNW",
  "Ortsverband Heiligenhaus/Wülfrath": "OHGH",
  "Ortsverband Helmstedt": "OHEM",
  "Ortsverband Heppenheim": "OHEP",
  "Ortsverband Herford": "OHFD",
  "Ortsverband Hermeskeil": "OHER",
  "Ortsverband Wanne-Eickel": "OWAC",
  "Ortsverband Herne": "OHEE",
  "Ortsverband Herten": "OHTN",
  "Ortsverband Herzberg": "OHZG",
  "Ortsverband Herzogenrath": "OHRT",
  "Ortsverband Heusweiler": "OHEU",
  "Ortsverband Hilden": "OHID",
  "Ortsverband Hildesheim": "OHDH",
  "Ortsverband Hilpoltstein": "OHIL",
  "Ortsverband Hof": "OHOF",
  "Regionalstelle Hof": "GHOF",
  "Ortsverband Hofgeismar": "OHGS",
  "Ortsverband Hofheim": "OHOH",
  "Ortsverband Holzminden": "OHOL",
  "Regionalstelle Homberg": "GHOM",
  "Ortsverband Homberg": "OHOM",
  "Ortsverband Homburg": "OHBU",
  "Ortsverband Horb": "OHOR",
  "Ortsverband Höxter": "OHXT",
  "Ortsverband Hoya": "OHOY",
  "Ortsverband Hückelhoven": "OHHV",
  "Ortsverband Hückeswagen": "OHWG",
  "Ortsverband Hünfeld": "OHUE",
  "Ortsverband Hürtgenwald": "OHUR",
  "Ortsverband Husum": "OHUS",
  "Ortsverband Ibbenbüren": "OIBB",
  "Ortsverband Idar-Oberstein": "OIOS",
  "Ortsverband Idstein": "OIDT",
  "Ortsverband Igersheim": "OBME",
  "Ortsverband Illingen": "OILL",
  "Regionalstelle Ingolstadt": "GING",
  "Ortsverband Ingolstadt": "OING",
  "Ortsverband Iserlohn": "OISR",
  "Ortsverband Itzehoe": "OITZ",
  "Ortsverband Jever": "OJEV",
  "Ortsverband Jülich": "OJUE",
  "Ortsverband Bad Doberan": "OBDB",
  "Ortsverband Kaiserslautern": "OKAI",
  "Ortsverband Kaltenkirchen": "OKAL",
  "Ortsverband Kamenz": "OKAM",
  "Regionalstelle Karlsruhe": "GKAR",
  "Ortsverband Karlsruhe": "OKAR",
  "Regionalstelle Karlstadt": "GKST",
  "Ortsverband Karlstadt": "OKGM",
  "Ortsverband Kassel": "OKSL",
  "Ortsverband Kaufbeuren": "OKAU",
  "Ortsverband Kehl": "OKEH",
  "Ortsverband Kelheim": "OKHM",
  "Ortsverband Kempen": "OKMP",
  "Ortsverband Kempten": "OKEM",
  "Regionalstelle Kempten": "GKEM",
  "Ortsverband Emmendingen": "OEMM",
  "Landesverband Hamburg, Mecklenburg-Vorpommern, Schleswig-Holstein": "LVSH",
  "Ortsverband Kiel": "OKIE",
  "Ortsverband Kirchehrenbach": "OKIB",
  "Ortsverband Kirchheim/Teck": "OKIR",
  "Ortsverband Kitzingen": "OKIT",
  "Ortsverband Günzburg": "OGUE",
  "Ortsverband Kleve": "OKLV",
  "Regionalstelle Koblenz": "GKOB",
  "Ortsverband Koblenz": "OKOB",
  "Ortsverband Köln-Ost": "OKOT",
  "Ortsverband Köln-Porz": "OKPZ",
  "Regionalstelle Köln": "GKOE",
  "Ortsverband Köln Nord-West": "OKNW",
  "Ortsverband Konstanz": "OKON",
  "Ortsverband Korbach": "OKOR",
  "Ortsverband Krefeld": "OKRE",
  "Ortsverband Kronach": "OKRO",
  "Ortsverband Krumbach": "OKRU",
  "Ortsverband Kulmbach": "OKUL",
  "Ortsverband Künzelsau": "OKUE",
  "Ortsverband Kutenholz": "OKUT",
  "Ortsverband Laaber": "OLAB",
  "Ortsverband Mallersdorf": "OMAL",
  "Ortsverband Ladenburg": "OLAD",
  "Ortsverband Lahnstein": "OLAH",
  "Ortsverband Lahr": "OLAR",
  "Ortsverband Lampertheim": "OLAM",
  "Ortsverband Landau": "OLDA",
  "Ortsverband Landsberg": "OLDS",
  "Ortsverband Landshut": "OLHT",
  "Ortsverband Lauenburg": "OLAU",
  "Ortsverband Lauf": "OLAF",
  "Ortsverband Laufenburg": "OLBG",
  "Ortsverband Lauterbach": "OLTB",
  "Ortsverband Lebach": "OLEB",
  "Ortsverband Leer": "OLER",
  "Ortsverband Lehrte": "OLEH",
  "Ortsverband Leipzig": "OLNO",
  "Regionalstelle Leipzig": "GLEI",
  "Ortsverband Lemgo": "OLEM",
  "Ortsverband Lengerich": "OLGH",
  "Ortsverband Lennestadt": "OLEN",
  "Ortsverband Leonberg": "OLEO",
  "Ortsverband Leverkusen": "OLEV",
  "Ortsverband Limburg": "OLIM",
  "Ortsverband Lindau": "OLIN",
  "Ortsverband Lindenberg": "OLID",
  "Ortsverband Lingen": "OLIG",
  "Regionalstelle Lingen": "GLIN",
  "Ortsverband Lippstadt": "OLIP",
  "Ortsverband Lohne": "OLON",
  "Ortsverband Lohr": "OLOH",
  "Ortsverband Lörrach": "OLOE",
  "Ortsverband Lübbecke": "OLCK",
  "Ortsverband Lübben (Spreewald)": "OLUB",
  "Ortsverband Lübeck": "OHLB",
  "Regionalstelle Lübeck": "GHLB",
  "Ortsverband Lüchow-Dannenberg": "OLDB",
  "Ortsverband Luckenwalde": "OLUC",
  "Ortsverband Lüdenscheid": "OLUS",
  "Ortsverband Lüdinghausen": "OLDH",
  "Ortsverband Ludwigsburg": "OLUD",
  "Ortsverband Ludwigshafen": "OLWF",
  "Ortsverband Ludwigslust": "OLUL",
  "Ortsverband Lüneburg": "OLUE",
  "Ortsverband Lünen": "OLUN",
  "Ortsverband Wittenberg": "OWIT",
  "Ortsverband Weißenfels": "OWFS",
  "Ortsverband Magdeburg": "OMBG",
  "Regionalstelle Magdeburg": "GMGB",
  "Ortsverband Mainz": "OMAI",
  "Landesverband Hessen, Rheinland-Pfalz, Saarland": "LVRP",
  "Regionalstelle Mannheim": "GMAN",
  "Ortsverband Mannheim": "OMAN",
  "Ortsverband Marburg": "OMBU",
  "Ortsverband Markt Schwaben": "OMAS",
  "Ortsverband Marktredwitz": "OMAR",
  "Ortsverband Marl": "OMRL",
  "Ortsverband Mayen": "OMAY",
  "Ortsverband Friedrichshafen": "OFRH",
  "Ortsverband Meldorf": "OMRF",
  "Ortsverband Melle": "OMLL",
  "Ortsverband Mellrichstadt": "OMEL",
  "Ortsverband Melsungen": "OMSU",
  "Ortsverband Memmingen": "OMEM",
  "Ortsverband Meppen": "OMEP",
  "Ortsverband Merseburg": "OMER",
  "Regionalstelle Merzig": "GMER",
  "Ortsverband Meschede": "OMES",
  "Regionalstelle Mühldorf": "GMUE",
  "Ortsverband Mettlach": "OMET",
  "Ortsverband Michelstadt": "OMTD",
  "Ortsverband Miesbach": "OMIE",
  "Ortsverband Miltenberg": "OMIL",
  "Ortsverband Minden": "OMDN",
  "Ortsverband Moers": "OMRS",
  "Ortsverband Mölln": "OMLN",
  "Regionalstelle Mönchengladbach": "GMOE",
  "Ortsverband Mönchengladbach": "OMGB",
  "Ortsverband Montabaur": "OMTB",
  "Ortsverband Mühlacker": "OMAC",
  "Ortsverband Mühldorf": "OMDF",
  "Ortsverband Mülheim": "OMHM",
  "Ortsverband Müllheim": "OMLH",
  "Ortsverband München-West": "OMUW",
  "Regionalstelle München": "GMUC",
  "Ortsverband München-Ost": "OMUO",
  "Landesverband Bayern": "LVBY",
  "Ortsverband München-Mitte": "OMUM",
  "Ortsverband Münsingen": "OMUS",
  "Regionalstelle Münster": "GMST",
  "Ortsverband Münster": "OMST",
  "Ortsverband Nabburg": "ONAB",
  "Ortsverband Naila": "ONAI",
  "Ortsverband Naumburg": "ONAU",
  "Ortsverband Neckargemünd": "ONEC",
  "Ortsverband Nettetal": "ONET",
  "Ortsverband Neu-Isenburg": "OIBG",
  "Ortsverband Neu-Ulm": "ONUL",
  "Ortsverband Neubrandenburg": "ONBG",
  "Ortsverband Neuburg": "ONEB",
  "Ortsverband Neuenbürg-Arnbach": "ONBA",
  "Bundesschule Technisches Hilfswerk": null,
  "Ortsverband Neuhausen": "ONEU",
  "Ortsverband Neuhof": "ONHF",
  "Ortsverband Neumarkt": "ONMK",
  "Regionalstelle Neumünster": "GITZ",
  "Ortsverband Neumünster": "OMUE",
  "Ortsverband Neunburg v.W.": "ONVW",
  "Ortsverband Neunkirchen (Saar)": "ONKI",
  "Ortsverband Neunkirchen": "ONEK",
  "Ortsverband Neuruppin": "ORUP",
  "Ortsverband Neuss": "ONSS",
  "Ortsverband Neustadt": "ONST",
  "Regionalstelle Neustadt/Weinstraße": "GNAW",
  "Ortsverband Neustadt a.d.W.": "OADW",
  "Ortsverband Neustadt a.d.A.": "ONDA",
  "Ortsverband Neustrelitz": "ONTZ",
  "Ortsverband Neuwied": "ONWD",
  "Ortsverband Niebüll": "ONBL",
  "Ortsverband Apolda": "OAPO",
  "Ortsverband Niefern-Öschelbronn": "ONOE",
  "Ortsverband Nienburg": "ONIE",
  "Ortsverband Nohfelden": "ONOF",
  "Ortsverband Norden": "ONOD",
  "Ortsverband Nordenham": "ONOM",
  "Ortsverband Norderstedt": "ONER",
  "Ortsverband Nordhausen": "ONOR",
  "Ortsverband Nordhorn": "ONHO",
  "Ortsverband Nördlingen": "ONDL",
  "Ortsverband Northeim": "ONOH",
  "Ortsverband Nörvenich": "ONOV",
  "Ortsverband Nürnberg": "ONNS",
  "Regionalstelle Nürnberg": "GNUE",
  "Ortsverband Ober-Ramstadt": "ORAM",
  "Ortsverband Oberhausen": "OONW",
  "Ortsverband Oberhausen-Rheinhausen": "OOBE",
  "Ortsverband Obernburg": "OOBG",
  "Ortsverband Oberviechtach": "OOVI",
  "Ortsverband Ochsenfurt": "OOCH",
  "Ortsverband Oelde": "OOEL",
  "Ortsverband Bad Kissingen": "OBKI",
  "Ortsverband Offenbach": "OOFB",
  "Ortsverband Offenburg": "OOFF",
  "Ortsverband Ofterdingen": "OOFT",
  "Regionalstelle Oldenburg": "GOLD",
  "Ortsverband Oldenburg - NI": "OODE",
  "Ortsverband Oldenburg": "OOLD",
  "Regionalstelle Olpe": "GOLP",
  "Ortsverband Olpe": "OOLP",
  "Ortsverband Oschersleben": "OOSC",
  "Ortsverband Osnabrück": "OOSN",
  "Ortsverband Warendorf": "OWDF",
  "Ortsverband Osterh.-Scharmbeck": "OBEC",
  "Ortsverband Osterode - NI": "OTER",
  "Ortsverband Ostfildern": "OOST",
  "Ortsverband Paderborn": "OPAD",
  "Ortsverband Papenburg-Aschend.": "OPAP",
  "Ortsverband Parchim": "OPAC",
  "Ortsverband Parsberg": "OPAR",
  "Ortsverband Pasewalk": "OPAK",
  "Ortsverband Passau": "OPAS",
  "Ortsverband Pegnitz": "OPEG",
  "Ortsverband Peine": "OPEI",
  "Ortsverband Perl-Obermosel": "OPOM",
  "Ortsverband Pfaffenhofen": "OPFA",
  "Ortsverband Pfedelbach": "OOEH",
  "Ortsverband Pforzheim": "OPFO",
  "Ortsverband Pfullendorf": "OPFU",
  "Ortsverband Pfungstadt": "OPST",
  "Ortsverband Dettenheim": "ODET",
  "Ortsverband Pinneberg": "OPIN",
  "Ortsverband Pirmasens": "OPSE",
  "Ortsverband Pirna": "OPIR",
  "Ortsverband Plauen": "OPLA",
  "Ortsverband Plön": "OPLO",
  "Ortsverband Preetz": "OPRZ",
  "Ortsverband Prenzlau": "OPRE",
  "Ortsverband Prüm": "OPRU",
  "Ortsverband Quakenbrück": "OQUA",
  "Ortsverband Radebeul": "ORBE",
  "Ortsverband Radolfzell": "ORAD",
  "Ortsverband Rastatt": "ORAS",
  "Ortsverband Rathenow": "ORAT",
  "Regionalstelle Düsseldorf": "GDUE",
  "Ortsverband Ratingen": "ORGN",
  "Ortsverband Ratzeburg": "ORZB",
  "Ortsverband Recklinghausen": "OREC",
  "Ortsverband Regen": "OREG",
  "Ortsverband Regensburg": "ORSB",
  "Ortsverband Reichenbach": "ORBA",
  "Ortsverband Remscheid": "OREM",
  "Ortsverband Rendsburg": "OREN",
  "Ortsverband Reutlingen": "OREU",
  "Ortsverband Rheine": "ORHN",
  "Ortsverband Rheinfelden": "ORHE",
  "Ortsverband Riedlingen": "ORIE",
  "Ortsverband Riegelsberg": "ORGB",
  "Ortsverband Riesa": "ORIS",
  "Ortsverband Rinteln": "ORIN",
  "Ortsverband Roding": "OROD",
  "Ortsverband Ronnenberg": "ORON",
  "Ortsverband Rosenheim": "OROS",
  "Ortsverband Rostock": "ORST",
  "Ortsverband Rotenburg": "ORTB",
  "Ortsverband Rotenburg - HE": "ORBU",
  "Ortsverband Roth": "OROH",
  "Ortsverband Rothenburg": "ORTH",
  "Ortsverband Rottenburg": "OROT",
  "Ortsverband Rudolstadt/Saalfeld": "ORUS",
  "Ortsverband Rüsselsheim": "ORUE",
  "Ortsverband Saarbrücken": "OSBR",
  "Regionalstelle Saarbrücken": "GSAA",
  "Ortsverband Saarburg": "OSAB",
  "Ortsverband Saarlouis": "OSAA",
  "Ortsverband Saarwellingen": "OSAW",
  "Ortsverband Salzgitter": "OSAL",
  "Ortsverband Salzwedel": "OSZD",
  "Ortsverband Sangerhausen": "OSAN",
  "Ortsverband Sarstedt": "OSAR",
  "Ortsverband Betzdorf": "OBET",
  "Ortsverband Schleiden": "OSLE",
  "Ortsverband Schleswig": "OSLS",
  "Regionalstelle Schleswig": "GSLG",
  "Ortsverband Schongau": "OSOA",
  "Ortsverband Schöningen": "OSIG",
  "Ortsverband Schopfheim": "OSPF",
  "Ortsverband Schorndorf": "OSCH",
  "Ortsverband Schramberg": "OSBG",
  "Ortsverband Schwabach": "OSWA",
  "Ortsverband Schwäbisch Gmünd": "OGMU",
  "Ortsverband Schwäbisch Hall": "OSHA",
  "Ortsverband Schwabmünchen": "OSWM",
  "Ortsverband Schwalmstadt": "OSLM",
  "Regionalstelle Schwandorf": "GSCH",
  "Ortsverband Schwandorf": "OSDF",
  "Ortsverband Schweinfurt": "OSWE",
  "Ortsverband Schwelm": "OSEM",
  "Ortsverband Schwerin": "OSWR",
  "Regionalstelle Schwerin": "GSWN",
  "Ortsverband Seelow": "OSEE",
  "Ortsverband Selb": "OSEL",
  "Ortsverband Seligenstadt": "OSST",
  "Ortsverband Senftenberg": "OSFG",
  "Ortsverband Siegburg": "OSGB",
  "Ortsverband Siegen": "OSIE",
  "Ortsverband Simbach": "OSIM",
  "Ortsverband Simmerath": "OSIR",
  "Ortsverband Simmern": "OSMM",
  "Ortsverband Singen": "OSGN",
  "Ortsverband Sinsheim": "OSIH",
  "Ortsverband Sinzig": "OSIN",
  "Ortsverband Soest": "OSOS",
  "Ortsverband Solingen": "OSOG",
  "Ortsverband Soltau": "OSOL",
  "Ortsverband Sondershausen": "OSON",
  "Ortsverband Sonneberg": "OSNB",
  "Ortsverband Sonthofen": "OSHF",
  "Ortsverband Sörup": "OSOE",
  "Ortsverband Speyer": "OSPY",
  "Ortsverband Spiesen-Elversberg": "OSPI",
  "Ortsverband Springe": "OSPR",
  "Ortsverband St. Ingbert": "OINB",
  "Ortsverband St. Wendel": "OWED",
  "Ortsverband Stade": "OSTD",
  "Ortsverband Stadthagen": "OSTH",
  "Ortsverband Potsdam": "OPOT",
  "Regionalstelle Potsdam": "GPOT",
  "Ortsverband Starnberg": "OSTG",
  "Ortsverband Staßfurt": "OSTF",
  "Ortsverband Steinau": "OSNA",
  "Ortsverband Stelle-Winsen": "OSTW",
  "Ortsverband Stendal": "OSTL",
  "Ortsverband Stockach": "OSTO",
  "Ortsverband Stolberg": "OSTB",
  "Ortsverband Stralsund": "OSRA",
  "Regionalstelle Stralsund": "GSTD",
  "Ortsverband Straubing": "OSTR",
  "Regionalstelle Straubing": "GSTR",
  "Ortsverband Stuttgart": "OST1",
  "Regionalstelle Stuttgart": "GSTU",
  "Landesverband Baden-Württemberg": "LVBW",
  "Ortsverband Suhl": "OSUH",
  "Ortsverband Sulingen": "OSLG",
  "Ortsverband Sulzbach": "OSUZ",
  "Ortsverband Sulzbach-Rosenberg": "OSUL",
  "Ortsverband Syke": "OSYK",
  "Ortsverband Quedlinburg": "OQBG",
  "Ortsverband Theley": "OTHE",
  "Ortsverband Tönning": "OTOE",
  "Ortsverband Torgau": "OTOR",
  "Ortsverband Traunstein": "OTST",
  "Ortsverband Treuchtlingen": "OTRT",
  "Regionalstelle Trier": "GTRI",
  "Ortsverband Trier": "OTRI",
  "Ortsverband Trossingen": "OTRO",
  "Ortsverband Tübingen": "OTUE",
  "Regionalstelle Tübingen": "GTUE",
  "Ortsverband Tuttlingen": "OTUT",
  "Ortsverband Übach-Palenberg": "OUEP",
  "Ortsverband Überlingen": "OUEB",
  "Ortsverband Uelzen": "OUEL",
  "Ortsverband Ulm": "OULM",
  "Ortsverband Unna-Schwerte": "OUNA",
  "Ortsverband Varel": "OVAR",
  "Ortsverband Velbert": "OVEL",
  "Ortsverband Verden": "OVER",
  "Regionalstelle Verden": "GVER",
  "Ortsverband Viernheim": "OVHM",
  "Ortsverband Viersen": "OVTV",
  "Ortsverband Villingen-Schwenningen": "OVSC",
  "Regionalstelle Villingen-Schwenningen": "GVIS",
  "Ortsverband Vilshofen": "OVIL",
  "Ortsverband Völklingen-Püttlingen": "OVOE",
  "Ortsverband Wächtersbach": "OWBH",
  "Ortsverband Wadern": "OWAD",
  "Ortsverband Waghäusel": "OWAG",
  "Ortsverband Wahlstedt": "OWAH",
  "Ortsverband Waldbröl": "OWBL",
  "Ortsverband Waldshut-Tiengen": "OWAL",
  "Ortsverband Fallingbostel-Walsrode": "OFAL",
  "Ortsverband Waltrop": "OWTP",
  "Ortsverband Wangen": "OWAN",
  "Ortsverband Warburg": "OWAB",
  "Ortsverband Wardenburg": "OWAR",
  "Ortsverband Waren": "OWAE",
  "Ortsverband Weiden": "OWEN",
  "Ortsverband Weilburg": "OWLB",
  "Ortsverband Weilheim": "OWHM",
  "Ortsverband Weingarten": "OWEI",
  "Ortsverband Weinsberg": "OWBG",
  "Ortsverband Hamburg-Bergedorf": "OHHB",
  "Ortsverband Wermelskirchen": "OWKN",
  "Ortsverband Werne": "OWEE",
  "Ortsverband Wertheim": "OWER",
  "Regionalstelle Wesel": "GWES",
  "Ortsverband Wesel": "OWSL",
  "Ortsverband Westerburg": "OWEB",
  "Ortsverband Westerstede": "OWES",
  "Ortsverband Wetter": "OWET",
  "Ortsverband Wetzlar": "OSWZ",
  "Ortsverband Widdern": "OWID",
  "Ortsverband Wiesbaden": "OWBN",
  "Ortsverband Wiesloch-Walldorf": "OWIE",
  "Ortsverband Wilhelmshaven": "OWHV",
  "Ortsverband Altötting": "OATG",
  "Ortsverband Wismar": "OWIS",
  "Ortsverband Witten": "OWTN",
  "Ortsverband Wittlich": "OWII",
  "Ortsverband Witzenhausen": "ONEI",
  "Ortsverband Wolfenbüttel": "OWOL",
  "Ortsverband Wolfhagen": "OWHG",
  "Ortsverband Wolfsburg": "OWLF",
  "Ortsverband Wolgast": "OWOG",
  "Ortsverband Worms": "OWRS",
  "Ortsverband Wörrstadt": "OWOR",
  "Ortsverband Wörth": "OWOE",
  "Ortsverband Wunstorf": "OWUN",
  "Ortsverband Wuppertal": "OWUP",
  "Ortsverband Würzburg": "OWUE",
  "Ortsverband Gransee": "OGEE",
  "Ortsverband Zell": "OZEL",
  "Ortsverband Rottweil": "OROW",
  "Ortsverband Zittau": "OZIT",
  "Ortsverband Zweibrücken": "OZWE",
  "Ortsverband Zwickau": "OZWI",
  "Ausbildungszentrum Brandenburg": "SBDT",
  "Ausbildungszentrum Hoya": "SHOY",
  "Ausbildungszentrum Neuhausen": "SNEU"
}
